<?xml version="1.0" encoding="UTF-8" standalone="no"?>
<!-- Created with Inkscape (http://www.inkscape.org/) -->

<svg
   width="100.99999mm"
   height="101.00002mm"
   viewBox="0 0 100.99999 101.00002"
   version="1.1"
   id="svg5"
   inkscape:export-filename="online.png"
   inkscape:export-xdpi="96"
   inkscape:export-ydpi="96"
   sodipodi:docname="online.svg"
   inkscape:version="1.2.2 (b0a8486541, 2022-12-01)"
   xmlns:inkscape="http://www.inkscape.org/namespaces/inkscape"
   xmlns:sodipodi="http://sodipodi.sourceforge.net/DTD/sodipodi-0.dtd"
   xmlns:xlink="http://www.w3.org/1999/xlink"
   xmlns="http://www.w3.org/2000/svg"
   xmlns:svg="http://www.w3.org/2000/svg">
  <sodipodi:namedview
     id="namedview7"
     pagecolor="#ffffff"
     bordercolor="#666666"
     borderopacity="1.0"
     inkscape:showpageshadow="2"
     inkscape:pageopacity="0.0"
     inkscape:pagecheckerboard="0"
     inkscape:deskcolor="#d1d1d1"
     inkscape:document-units="mm"
     showgrid="false"
     inkscape:zoom="2.2817033"
     inkscape:cx="111.32035"
     inkscape:cy="190.86618"
     inkscape:window-width="1918"
     inkscape:window-height="1062"
     inkscape:window-x="1920"
     inkscape:window-y="16"
     inkscape:window-maximized="1"
     inkscape:current-layer="layer1" />
  <defs
     id="defs2">
    <linearGradient
       inkscape:collect="always"
       id="linearGradient817">
      <stop
         style="stop-color:#43ec43;stop-opacity:1;"
         offset="0"
         id="stop813" />
      <stop
         style="stop-color:#136a13;stop-opacity:1;"
         offset="1"
         id="stop815" />
    </linearGradient>
    <radialGradient
       inkscape:collect="always"
       xlink:href="#linearGradient817"
       id="radialGradient819"
       cx="125.1752"
       cy="147.47719"
       fx="125.1752"
       fy="147.47719"
       r="51"
       gradientUnits="userSpaceOnUse" />
  </defs>
  <g
     inkscape:label="Layer 1"
     inkscape:groupmode="layer"
     id="layer1"
     transform="translate(-74.675196,-96.977185)">
    <circle
       style="fill:url(#radialGradient819);fill-opacity:1;stroke:#000000;stroke-width:1;stroke-dasharray:none"
       id="path234"
       cx="125.1752"
       cy="147.47719"
       r="50" />
  </g>
</svg>
